foieGras-basics
…
The estimated locations can be accessed for further analysis, custom mapping, etc… by using the grab function. They can be returned as a projected sf tibble or as a simple unprojected tibble. Note, that for all foieGras outputs the x, y, x.se and y.se units are in km.

## grab fitted locations from fit object as a projected sf object 
plocs_sf <- grab(fitc, what = "f")

## grab predicted locations in unprojected form, returning as a tibble
plocs <- grab(fitc, "p", as_sf = FALSE)

## unprojected form looks like this
plocs
#> # A tibble: 113 x 12
#>    id    date                  lon   lat      x      y     x.se     y.se
#>    <chr> <dttm>              <dbl> <dbl>  <dbl>  <dbl>    <dbl>    <dbl>
#>  1 54591 2012-03-05 05:00:00  111. -66.4 12309. -9956. 10.00e-6 10.00e-6
#>  2 54591 2012-03-06 05:00:00  111. -66.4 12303. -9947.  1.31e+1  7.57e-3
#>  3 54591 2012-03-07 05:00:00  110. -66.5 12297. -9963.  3.46e+0  2.34e-1
#>  4 54591 2012-03-08 05:00:00  110. -66.4 12286. -9946.  6.06e+0  5.28e+0
#>  5 54591 2012-03-09 05:00:00  110. -66.5 12296. -9973.  7.52e+0  1.07e+0
#>  6 54591 2012-03-10 05:00:00  111. -66.4 12305. -9956.  4.70e+0  2.83e+0
#>  7 54591 2012-03-11 05:00:00  111. -66.5 12328. -9970.  3.62e+0  3.07e+0
#>  8 54591 2012-03-12 05:00:00  111. -66.5 12306. -9967.  1.54e+1  3.65e+0
#>  9 54591 2012-03-13 05:00:00  110. -66.4 12291. -9953.  5.97e+0  4.87e+0
#> 10 54591 2012-03-14 05:00:00  110. -66.4 12290. -9939.  4.76e+0  4.40e+0
#> # … with 103 more rows, and 4 more variables: u <dbl>, v <dbl>,
#> #   u.se <dbl>, v.se <dbl>
…
